{
  "main.css": "/static/css/main.fb4aa814.chunk.css",
  "main.js": "/static/js/main.978f0160.chunk.js",
  "main.js.map": "/static/js/main.978f0160.chunk.js.map",
  "runtime~main.js": "/static/js/runtime~main.fdfcfda2.js",
  "runtime~main.js.map": "/static/js/runtime~main.fdfcfda2.js.map",
  "static/js/2.6a1a1717.chunk.js": "/static/js/2.6a1a1717.chunk.js",
  "static/js/2.6a1a1717.chunk.js.map": "/static/js/2.6a1a1717.chunk.js.map",
  "index.html": "/index.html",
  "precache-manifest.7c06ec90c5fd1679c9e7e2c442e199d1.js": "/precache-manifest.7c06ec90c5fd1679c9e7e2c442e199d1.js",
  "service-worker.js": "/service-worker.js",
  "static/css/main.fb4aa814.chunk.css.map": "/static/css/main.fb4aa814.chunk.css.map",
  "static/media/logo.svg": "/static/media/logo.8350e5d4.svg"
}